chapter12-spatial.utf8.md
…
Estimate the impact of bar openings on nearby crime, business patterns, and property values.

Determine whether low-income households are particularly prone and risks from floods and sea-level-rise.

Spatial data, defined

What makes something spatial data? In general, the answer is that your dataset includes attributes that allow you to relate the observations/objects in space. Often, these attributes are two variables that place the observations on a grid, for example, latitude on longitude (though any \(x\) and \(y\) will work). Sometimes youll have additional information, for example the elevation/altitude of the observation or the ways in which the observations are connected (in space or otherwise)but lets start with the two-dimension case.

A typical (2-D) spatial dataset will thus have some identifier for an individual (ID, name, etc.), some interesting features, and the aforementioned coordinates. For example, here are cities in the United States (a dataset contained in the maps package)

  # Example dataset: US cities
  maps::us.cities %>% as_tibble()

## # A tibble: 1,005 x 6
##    name           country.etc    pop   lat   long capital
##    <chr>          <chr>        <int> <dbl>  <dbl>   <int>
##  1 Abilene TX     TX          113888  32.4  -99.7       0
##  2 Akron OH       OH          206634  41.1  -81.5       0
##  3 Alameda CA     CA           70069  37.8 -122.        0
##  4 Albany GA      GA           75510  31.6  -84.2       0
##  5 Albany NY      NY           93576  42.7  -73.8       2
##  6 Albany OR      OR           45535  44.6 -123.        0
##  7 Albuquerque NM NM          494962  35.1 -107.        0
##  8 Alexandria LA  LA           44933  31.3  -92.5       0
##  9 Alexandria VA  VA          127159  38.8  -77.1       0
## 10 Alhambra CA    CA           88857  34.1 -118.        0
## #  with 995 more rows
…
